xof 0303txt 0032
template XSkinMeshHeader {
 <3cf169ce-ff7c-44ab-93c0-f78f62d172e2>
 WORD nMaxSkinWeightsPerVertex;
 WORD nMaxSkinWeightsPerFace;
 WORD nBones;
}

template VertexDuplicationIndices {
<b8d65549-d7c9-4995-89cf-53a9a8b031e3>
 DWORD nIndices;
 DWORD nOriginalVertices;
 array DWORD indices[nIndices];
}

template SkinWeights {
 <6f0d123b-bad2-4167-a0d0-80224f25fabb>
 STRING transformNodeName;
 DWORD nWeights;
 array DWORD vertexIndices[nWeights];
 array FLOAT weights[nWeights];
 Matrix4x4 matrixOffset;
}


Frame Scene_Root {


 FrameTransformMatrix {
  1.000000, 0.000000, 0.000000, 0.000000,
  0.000000, 1.000000, 0.000000, 0.000000,
  0.000000, 0.000000, 1.000000, 0.000000,
  0.000000, 0.000000, 0.000000, 1.000000;;
 }

  Frame Mesh02 {

   FrameTransformMatrix {
    1.000000, 0.000000, 0.000000, 0.000000,
    0.000000, 1.000000, 0.000000, 0.000000,
    0.000000, 0.000000, 1.000000, 0.000000,
    0.000000, 0.000000, 0.000000, 1.000000;;
   }

   Mesh {
    357;
    9.238280;115.112000;13.741100;,
    -1.625740;102.172997;11.973900;,
    -12.543100;115.112000;13.741100;,
    8.767800;99.818001;4.753000;,
    -1.625740;93.849800;16.840200;,
    4.872870;106.971001;3.934410;,
    9.238280;115.112000;13.741100;,
    9.688640;116.991997;1.441150;,
    -1.625740;107.561996;-3.196290;,
    -1.625740;91.110298;-3.751060;,
    3.747980;117.549004;-8.662010;,
    9.482900;123.964996;-2.198420;,
    -2.317930;117.549004;-8.662010;,
    -2.464610;123.964996;-2.198420;,
    6.565790;130.257996;7.257480;,
    -2.229730;130.257996;7.257490;,
    11.251600;119.190002;13.533300;,
    -2.293300;115.111000;13.743100;,
    -4.233340;119.190002;13.533300;,
    9.851880;77.163597;-57.551601;,
    17.107500;60.638500;-56.582199;,
    19.350000;65.451401;-47.715500;,
    12.058400;70.460800;-73.161697;,
    -1.181800;75.617500;-70.940300;,
    -1.181800;66.933403;-80.112801;,
    -14.422100;70.460800;-73.161697;,
    -22.722000;53.152901;-64.540199;,
    -19.471001;60.638500;-56.582199;,
    -1.181800;47.147999;-50.700298;,
    -21.713600;65.451401;-47.715500;,
    -12.215300;77.163597;-57.551601;,
    -1.181800;81.920303;-61.980202;,
    -1.181800;42.840599;-64.176300;,
    -15.783200;50.283901;-69.373901;,
    20.358400;53.152901;-64.540199;,
    13.770000;50.283501;-69.374702;,
    -1.181800;58.828701;-81.362198;,
    10.026300;43.935600;-79.023102;,
    -1.181800;47.728500;-89.047798;,
    -0.393900;41.455601;-80.003700;,
    -12.039600;43.935600;-79.023102;,
    -28.351900;88.435501;-14.049600;,
    -23.427900;105.781998;-45.305500;,
    -21.266001;88.435501;-14.049600;,
    -24.806601;98.490303;-44.281502;,
    -24.807501;96.711601;-52.052101;,
    -26.205200;105.727997;-45.228500;,
    -24.808300;81.484802;-14.154100;,
    -24.807800;70.139000;-14.421200;,
    -24.806200;87.144501;-51.611401;,
    14.094900;33.141300;31.041500;,
    -1.202290;55.172199;20.225401;,
    3.128920;48.983200;49.831600;,
    14.836900;70.897301;28.938900;,
    24.894501;49.131401;48.997799;,
    24.729900;72.818100;46.914600;,
    13.604200;66.413101;61.408401;,
    -1.202290;55.172199;20.225401;,
    -1.194600;79.776299;64.700104;,
    -1.181800;31.505800;-69.292702;,
    -15.783200;50.283901;-69.373901;,
    13.770000;50.283501;-69.374702;,
    7.405130;43.188900;-78.921501;,
    -1.062370;39.311501;-80.573898;,
    -9.416230;43.189301;-78.920601;,
    -11.523300;99.167000;4.688710;,
    -33.276100;75.084297;1.325630;,
    -1.624670;90.874001;-3.410390;,
    -25.798500;73.611702;8.446530;,
    -19.726601;58.276501;11.588100;,
    -1.624670;93.483101;16.200300;,
    -18.763901;47.177700;7.635570;,
    -25.785900;72.777901;-5.010730;,
    26.077801;30.522800;-14.518600;,
    20.753901;34.084702;-30.573000;,
    24.426001;12.403400;-27.167601;,
    9.806710;12.685700;-25.016500;,
    5.931460;31.808901;-11.885100;,
    16.076900;15.082500;-45.653099;,
    14.700100;106.038002;5.198980;,
    17.088600;91.394798;5.026800;,
    22.614300;107.556000;4.905420;,
    21.856899;93.707603;8.376680;,
    15.217300;106.168999;12.869200;,
    17.841600;91.525703;12.895600;,
    19.062799;115.375000;12.466600;,
    22.614300;107.556000;4.905420;,
    15.217300;106.168999;12.869200;,
    9.238280;115.112000;13.741100;,
    14.700100;106.038002;5.198980;,
    9.688640;116.991997;1.441150;,
    19.958700;115.550003;-2.002620;,
    3.315260;47.786701;84.184700;,
    -1.181800;54.308399;87.681099;,
    3.976810;66.398300;61.407600;,
    -1.194600;79.776299;64.700104;,
    -6.340420;66.398300;61.407600;,
    -5.678880;47.786701;84.184700;,
    -1.181800;46.567200;109.123001;,
    -5.503970;39.497601;107.406998;,
    3.140350;39.497601;107.406998;,
    -4.218420;40.382500;123.271004;,
    -1.181810;47.523201;121.968002;,
    -1.181810;46.944500;132.455994;,
    1.854790;40.382500;123.271004;,
    15.092000;49.938400;-4.796050;,
    -1.293720;43.762699;-6.612560;,
    -17.455601;49.938400;-4.796060;,
    -17.216801;70.897301;28.938900;,
    -22.394100;66.975899;-3.468870;,
    -1.181800;85.213799;19.086901;,
    -1.181800;85.147697;-6.087550;,
    20.030500;66.975899;-3.468870;,
    14.836900;70.897301;28.938900;,
    26.873800;1.232080;-29.891100;,
    9.062840;1.256980;-30.844200;,
    13.464500;11.499400;-54.376701;,
    26.744400;11.553400;-48.850201;,
    11.650400;1.150300;-61.430500;,
    31.920900;1.191170;-52.454399;,
    -24.807800;69.405701;22.360901;,
    -24.806200;85.500801;56.686199;,
    -24.808300;80.751503;22.628000;,
    -24.806601;96.846397;49.890499;,
    -21.398701;87.882202;22.735701;,
    -28.219400;87.882202;22.735701;,
    -26.205200;104.047997;51.001801;,
    -24.807501;94.797600;57.594501;,
    -23.427900;104.099998;51.080601;,
    -1.181790;40.550301;-38.202801;,
    -1.293720;43.762699;-6.612560;,
    28.159901;66.371201;-22.308001;,
    20.030500;66.975899;-3.468870;,
    15.092000;49.938400;-4.796050;,
    -12.602800;12.685700;-25.016500;,
    -29.625000;1.232100;-29.891100;,
    -27.222200;12.403400;-27.167601;,
    -11.970200;1.256990;-30.844200;,
    -18.873100;15.082500;-45.653099;,
    -16.260700;11.499400;-54.376701;,
    -29.540501;11.553400;-48.850201;,
    -14.535200;1.150320;-61.430500;,
    -34.627800;1.191200;-52.454399;,
    -1.625800;143.358002;12.954800;,
    4.235190;126.873001;1.344400;,
    -1.625800;129.001007;7.435800;,
    -7.486690;126.873001;1.344400;,
    -8.764260;141.774994;-0.759200;,
    5.512760;141.774994;-0.759200;,
    -1.625740;147.572998;0.538280;,
    -7.486690;126.873001;1.344400;,
    -1.625670;124.689003;-6.064040;,
    -8.764260;141.774994;-0.759200;,
    -1.625670;140.365005;-7.393410;,
    5.512760;141.774994;-0.759200;,
    -1.625740;147.572998;0.538280;,
    4.235190;126.873001;1.344400;,
    -1.620830;92.413597;23.186800;,
    -12.071800;119.018997;17.882500;,
    -1.623310;122.448997;23.836201;,
    8.825320;119.018997;17.882500;,
    -1.021730;130.257996;7.257490;,
    -0.958160;115.111000;13.743100;,
    -12.543100;115.112000;13.741100;,
    0.981850;119.190002;13.533300;,
    -9.870690;130.257996;7.257480;,
    -14.556500;119.190002;13.533300;,
    -12.787700;123.964996;-2.198420;,
    -0.786870;123.964996;-2.198420;,
    -6.999470;117.549004;-8.662010;,
    -0.933530;117.549004;-8.662010;,
    -12.019200;99.818001;4.753000;,
    -8.124360;106.971001;3.934410;,
    -13.011300;116.991997;1.441150;,
    -27.374300;7.463470;51.293701;,
    -13.947600;1.097790;29.436800;,
    -16.332001;8.420590;45.283901;,
    -33.492199;1.097790;37.545502;,
    -11.405700;14.674400;69.363602;,
    -27.784700;1.745800;67.028503;,
    -23.878099;14.874400;66.181801;,
    -31.730400;1.505920;45.729801;,
    -19.415501;14.736800;50.131500;,
    -15.446900;10.928700;43.293800;,
    -8.108420;1.701530;67.696198;,
    -16.910101;1.235030;36.876701;,
    -27.784700;1.745800;67.028503;,
    -8.108420;1.701530;67.696198;,
    -31.730400;1.505920;45.729801;,
    -16.910101;1.235030;36.876701;,
    -9.416230;43.189301;-78.920601;,
    -1.062370;39.311501;-80.573898;,
    7.405130;43.188900;-78.921501;,
    13.770000;50.283501;-69.374702;,
    -15.783200;50.283901;-69.373901;,
    -11.970200;1.256990;-30.844200;,
    -14.535200;1.150320;-61.430500;,
    -34.627800;1.191200;-52.454399;,
    -29.625000;1.232100;-29.891100;,
    -17.253901;1.097770;-69.630402;,
    -31.219400;8.615710;-49.068501;,
    -33.649799;1.097770;-61.521702;,
    -15.498100;8.615710;-55.078300;,
    -8.727640;31.808901;-11.885100;,
    -28.874001;30.522800;-14.518600;,
    -20.218300;34.084702;-30.573000;,
    -22.394100;66.975899;-3.468870;,
    -30.523500;66.371201;-22.308001;,
    -17.455601;49.938400;-4.796060;,
    -12.039600;43.935600;-79.023102;,
    10.026300;43.935600;-79.023102;,
    -0.393900;41.455601;-80.003700;,
    8.323980;44.211700;-79.281303;,
    11.261700;34.782600;-66.205704;,
    8.609210;47.809700;-76.970398;,
    -12.546100;34.782600;-66.205704;,
    -10.687600;44.211700;-79.281303;,
    -11.112500;46.958000;-76.665100;,
    15.750000;63.938999;-64.150497;,
    6.848000;76.462303;-57.849899;,
    22.866501;79.443001;-62.625500;,
    8.703020;73.949799;-65.287598;,
    -25.230101;79.443001;-62.625500;,
    -11.066500;73.949799;-65.287598;,
    -9.211620;76.462303;-57.849899;,
    -18.113701;63.938999;-64.150497;,
    -1.181790;40.550301;-38.202801;,
    19.350000;65.451401;-47.715500;,
    -1.181800;47.147999;-50.700298;,
    -21.713600;65.451401;-47.715500;,
    -30.523500;66.371201;-22.308001;,
    -12.215300;77.163597;-57.551601;,
    -20.846701;83.458702;-25.108101;,
    -1.181800;81.920303;-61.980202;,
    -1.181800;95.767303;-31.661501;,
    18.483200;83.458702;-25.108101;,
    28.159901;66.371201;-22.308001;,
    9.851880;77.163597;-57.551601;,
    -1.099570;111.197998;-27.169001;,
    7.802300;106.580002;-23.806400;,
    -10.037800;106.496002;-23.675100;,
    12.261600;94.584801;-27.214701;,
    -14.434300;94.459602;-27.018200;,
    30.026501;75.084297;1.325630;,
    8.273940;99.166901;4.688720;,
    22.549101;73.611702;8.446530;,
    16.477100;58.276501;11.588100;,
    15.514300;47.177700;7.635570;,
    22.536501;72.777901;-5.010730;,
    -24.808300;81.484802;-14.154100;,
    -28.351900;88.435501;-14.049600;,
    -28.219400;87.882202;22.735701;,
    -24.808300;80.751503;22.628000;,
    -21.266001;88.435501;-14.049600;,
    -21.398701;87.882202;22.735701;,
    -25.494600;101.987999;-45.267799;,
    -24.525900;104.461998;5.442280;,
    -24.433701;110.209000;3.871110;,
    -25.243401;102.605003;52.717899;,
    -24.433701;110.209000;3.871110;,
    -24.525900;104.461998;5.442280;,
    -19.671801;83.676498;13.414100;,
    -20.319201;91.394798;5.026790;,
    -18.819700;81.416298;1.075670;,
    -21.072100;91.525703;12.895600;,
    -27.584400;85.316498;8.588430;,
    -25.087500;93.707603;8.376670;,
    -20.319201;91.394798;5.026790;,
    -17.330000;104.461998;5.376320;,
    -23.982500;105.981003;5.082750;,
    -17.847200;106.168999;12.869200;,
    -21.072100;91.525703;12.895600;,
    -25.087500;93.707603;8.376670;,
    -17.847200;106.168999;12.869200;,
    -23.982500;105.981003;5.082750;,
    -21.377300;115.375000;12.466600;,
    -12.543100;115.112000;13.741100;,
    -17.330000;104.461998;5.376320;,
    -13.011300;116.991997;1.441150;,
    -22.273001;115.550003;-2.002620;,
    15.610100;81.416298;1.075680;,
    17.088600;91.394798;5.026800;,
    16.462200;83.676498;13.414100;,
    17.841600;91.525703;12.895600;,
    24.374901;85.316498;8.588450;,
    21.856899;93.707603;8.376680;,
    -21.026300;151.315002;24.932800;,
    -14.225100;140.266998;6.869640;,
    -8.727080;140.733002;-0.846800;,
    -8.148900;134.578995;-0.442660;,
    4.897430;134.578995;-0.442660;,
    10.973600;140.266998;6.869640;,
    5.475610;140.733002;-0.846800;,
    17.774900;151.315002;24.932800;,
    3.567290;125.579002;2.541260;,
    11.398500;127.680000;0.451550;,
    4.844860;140.481003;0.437620;,
    10.224100;120.531998;-4.966600;,
    -13.475700;120.531998;-4.966600;,
    -6.818880;125.579002;2.541260;,
    -14.650100;127.680000;0.451550;,
    -8.096440;140.481003;0.437620;,
    3.128920;48.983200;49.831600;,
    13.604200;66.413101;61.408401;,
    24.894501;49.131401;48.997799;,
    14.056500;8.420590;45.283901;,
    11.621100;1.097790;29.436800;,
    25.098801;7.463460;51.293701;,
    31.312500;1.097790;37.545502;,
    8.971130;14.674400;69.363602;,
    21.443501;14.874400;66.181801;,
    25.117701;1.745800;67.028503;,
    29.376600;1.505920;45.729801;,
    16.981001;14.736800;50.131500;,
    13.014300;10.928700;43.293800;,
    5.823870;1.701520;67.696198;,
    14.425200;1.235030;36.876701;,
    29.376600;1.505920;45.729801;,
    14.425200;1.235030;36.876701;,
    5.823870;1.701520;67.696198;,
    25.117701;1.745800;67.028503;,
    19.356100;43.780399;63.868599;,
    12.794500;30.908701;48.823200;,
    4.459990;42.973499;64.212799;,
    4.459990;42.973499;64.212799;,
    19.356100;43.780399;63.868599;,
    -5.538280;48.983200;49.831600;,
    -16.515600;33.141300;31.041500;,
    -17.216801;70.897301;28.938900;,
    -27.315300;49.131401;48.997799;,
    -27.119101;72.818100;46.914600;,
    -16.002001;66.413101;61.408401;,
    -27.315300;49.131401;48.997799;,
    -16.002001;66.413101;61.408401;,
    -5.538280;48.983200;49.831600;,
    -21.779301;43.780399;63.868599;,
    -15.215900;30.908701;48.823200;,
    -6.883190;42.973499;64.212799;,
    -6.883190;42.973499;64.212799;,
    -21.779301;43.780399;63.868599;,
    -1.181800;91.984001;37.128101;,
    -27.119101;72.818100;46.914600;,
    -1.181800;89.954903;50.881001;,
    -1.194600;79.776299;64.700104;,
    24.729900;72.818100;46.914600;,
    13.604200;66.413101;61.408401;,
    3.128920;48.983200;49.831600;,
    -16.002001;66.413101;61.408401;,
    -5.538280;48.983200;49.831600;,
    9.062840;1.256980;-30.844200;,
    26.873800;1.232080;-29.891100;,
    31.920900;1.191170;-52.454399;,
    11.650400;1.150300;-61.430500;,
    12.701800;8.615730;-55.078300;,
    14.393300;1.097800;-69.630402;,
    28.423201;8.615730;-49.068501;,
    30.934200;1.097800;-61.521702;;
    394;
    3;0,2,1;,
    3;3,1,4;,
    3;1,3,5;,
    3;6,1,5;,
    3;6,5,7;,
    3;3,9,8;,
    3;5,3,8;,
    3;10,5,8;,
    3;10,7,5;,
    3;11,7,10;,
    3;8,12,10;,
    3;13,10,12;,
    3;11,10,13;,
    3;14,11,15;,
    3;11,13,15;,
    3;14,15,6;,
    3;16,14,6;,
    3;17,15,18;,
    3;17,6,15;,
    3;19,21,20;,
    3;22,19,20;,
    3;22,23,19;,
    3;23,22,24;,
    3;24,25,23;,
    3;24,26,25;,
    3;27,25,26;,
    3;27,26,28;,
    3;29,27,28;,
    3;27,29,30;,
    3;27,30,25;,
    3;30,23,25;,
    3;31,23,30;,
    3;19,23,31;,
    3;26,32,28;,
    3;33,32,26;,
    3;34,32,35;,
    3;28,32,34;,
    3;28,34,20;,
    3;28,20,21;,
    3;34,22,20;,
    3;22,34,24;,
    3;35,24,34;,
    3;24,35,36;,
    3;37,36,35;,
    3;36,37,38;,
    3;38,37,39;,
    3;39,38,37;,
    3;40,38,39;,
    3;26,24,33;,
    3;36,33,24;,
    3;33,36,40;,
    3;38,40,36;,
    3;39,40,38;,
    3;41,43,42;,
    3;43,44,42;,
    3;42,44,45;,
    3;44,46,45;,
    3;41,42,46;,
    3;46,42,45;,
    3;44,41,46;,
    3;47,41,44;,
    3;43,47,44;,
    3;44,48,47;,
    3;47,48,44;,
    3;48,44,49;,
    3;49,44,48;,
    3;50,52,51;,
    3;53,50,51;,
    3;50,53,54;,
    3;55,54,53;,
    3;56,54,55;,
    3;57,52,58;,
    3;32,60,59;,
    3;59,61,32;,
    3;61,59,62;,
    3;63,62,59;,
    3;64,59,60;,
    3;64,63,59;,
    3;59,63,62;,
    3;59,64,63;,
    3;65,67,66;,
    3;66,68,65;,
    3;68,66,69;,
    3;70,65,68;,
    3;71,69,66;,
    3;66,72,71;,
    3;72,66,67;,
    3;73,75,74;,
    3;75,73,76;,
    3;77,76,73;,
    3;76,77,78;,
    3;78,74,75;,
    3;74,78,77;,
    3;79,81,80;,
    3;82,80,81;,
    3;81,83,82;,
    3;84,82,83;,
    3;80,83,79;,
    3;83,80,84;,
    3;85,87,86;,
    3;87,85,88;,
    3;88,89,87;,
    3;88,90,89;,
    3;90,91,89;,
    3;86,91,85;,
    3;86,89,91;,
    3;92,94,93;,
    3;94,95,93;,
    3;96,93,95;,
    3;97,93,96;,
    3;98,97,99;,
    3;97,98,93;,
    3;98,100,92;,
    3;92,93,98;,
    3;101,103,102;,
    3;102,99,101;,
    3;99,102,98;,
    3;100,98,102;,
    3;102,104,100;,
    3;104,102,103;,
    3;57,106,105;,
    3;57,107,106;,
    3;107,57,108;,
    3;109,107,108;,
    3;108,110,109;,
    3;111,109,110;,
    3;111,110,112;,
    3;113,112,110;,
    3;112,113,105;,
    3;105,113,57;,
    3;76,114,75;,
    3;114,76,115;,
    3;78,115,76;,
    3;115,78,116;,
    3;116,78,117;,
    3;118,116,117;,
    3;118,117,119;,
    3;117,75,114;,
    3;114,119,117;,
    3;75,117,78;,
    3;115,116,118;,
    3;120,122,121;,
    3;121,122,120;,
    3;123,121,122;,
    3;122,121,123;,
    3;124,123,122;,
    3;122,123,125;,
    3;123,126,125;,
    3;123,127,126;,
    3;124,128,123;,
    3;128,127,123;,
    3;126,127,128;,
    3;125,126,128;,
    3;125,128,124;,
    3;129,77,130;,
    3;77,129,74;,
    3;131,74,129;,
    3;73,74,131;,
    3;132,73,131;,
    3;73,132,133;,
    3;130,77,133;,
    3;133,77,73;,
    3;134,136,135;,
    3;135,137,134;,
    3;138,134,137;,
    3;137,139,138;,
    3;139,140,138;,
    3;141,140,139;,
    3;141,142,140;,
    3;140,135,136;,
    3;135,140,142;,
    3;136,138,140;,
    3;137,141,139;,
    3;143,145,144;,
    3;143,146,145;,
    3;146,143,147;,
    3;144,148,143;,
    3;143,148,149;,
    3;143,149,147;,
    3;150,152,151;,
    3;153,151,152;,
    3;154,151,153;,
    3;153,155,154;,
    3;152,155,153;,
    3;151,154,156;,
    3;157,159,158;,
    3;157,160,159;,
    3;161,163,162;,
    3;164,161,162;,
    3;163,161,165;,
    3;163,165,166;,
    3;161,167,165;,
    3;161,168,167;,
    3;168,169,167;,
    3;170,169,168;,
    3;169,170,8;,
    3;8,9,171;,
    3;8,171,172;,
    3;8,172,169;,
    3;172,173,169;,
    3;169,173,167;,
    3;4,1,171;,
    3;172,171,1;,
    3;172,1,163;,
    3;173,172,163;,
    3;174,176,175;,
    3;175,177,174;,
    3;178,180,179;,
    3;181,179,180;,
    3;180,182,181;,
    3;183,181,182;,
    3;184,183,182;,
    3;184,185,183;,
    3;179,184,178;,
    3;182,178,184;,
    3;185,181,183;,
    3;186,188,187;,
    3;188,189,187;,
    3;190,192,191;,
    3;190,193,192;,
    3;194,193,190;,
    3;195,197,196;,
    3;195,198,197;,
    3;199,201,200;,
    3;200,202,199;,
    3;203,204,134;,
    3;136,134,204;,
    3;204,205,136;,
    3;138,136,205;,
    3;205,203,138;,
    3;134,138,203;,
    3;206,207,204;,
    3;204,207,205;,
    3;207,129,205;,
    3;203,205,129;,
    3;129,130,203;,
    3;130,208,203;,
    3;204,208,206;,
    3;208,204,203;,
    3;194,209,193;,
    3;193,209,210;,
    3;209,211,210;,
    3;212,214,213;,
    3;212,213,214;,
    3;215,217,216;,
    3;217,215,216;,
    3;218,220,219;,
    3;219,220,221;,
    3;220,218,221;,
    3;222,224,223;,
    3;222,225,224;,
    3;225,222,223;,
    3;226,228,227;,
    3;226,229,228;,
    3;226,230,229;,
    3;231,229,230;,
    3;232,231,230;,
    3;231,232,233;,
    3;233,232,234;,
    3;233,234,235;,
    3;234,111,235;,
    3;235,111,112;,
    3;109,232,230;,
    3;232,109,111;,
    3;234,232,111;,
    3;112,236,235;,
    3;237,233,235;,
    3;235,236,237;,
    3;237,236,227;,
    3;226,227,236;,
    3;238,240,239;,
    3;240,241,239;,
    3;240,242,241;,
    3;67,244,243;,
    3;245,243,244;,
    3;243,245,246;,
    3;244,70,245;,
    3;246,247,243;,
    3;248,243,247;,
    3;243,248,67;,
    3;249,251,250;,
    3;251,249,252;,
    3;253,252,249;,
    3;252,253,254;,
    3;250,254,253;,
    3;254,250,251;,
    3;255,257,256;,
    3;256,257,255;,
    3;258,260,259;,
    3;259,260,258;,
    3;261,263,262;,
    3;262,264,261;,
    3;265,261,264;,
    3;264,266,265;,
    3;263,265,262;,
    3;266,262,265;,
    3;261,265,263;,
    3;267,269,268;,
    3;268,270,267;,
    3;271,267,270;,
    3;270,272,271;,
    3;272,270,269;,
    3;269,267,272;,
    3;273,275,274;,
    3;275,273,276;,
    3;277,276,273;,
    3;278,276,277;,
    3;279,278,277;,
    3;279,274,275;,
    3;277,274,279;,
    3;280,282,281;,
    3;283,281,282;,
    3;282,284,283;,
    3;285,283,284;,
    3;284,280,281;,
    3;281,285,284;,
    3;284,282,280;,
    3;286,288,287;,
    3;288,289,287;,
    3;290,292,291;,
    3;292,293,291;,
    3;294,296,295;,
    3;295,297,294;,
    3;295,294,297;,
    3;294,295,296;,
    3;298,300,299;,
    3;301,299,300;,
    3;299,300,298;,
    3;300,299,301;,
    3;158,143,145;,
    3;160,145,143;,
    3;159,160,143;,
    3;159,143,158;,
    3;302,304,303;,
    3;305,307,306;,
    3;308,306,307;,
    3;309,311,310;,
    3;312,310,311;,
    3;310,312,313;,
    3;314,313,312;,
    3;315,313,314;,
    3;315,314,316;,
    3;311,309,315;,
    3;313,315,309;,
    3;316,314,312;,
    3;317,319,318;,
    3;320,319,317;,
    3;321,310,322;,
    3;310,321,309;,
    3;323,309,321;,
    3;309,323,313;,
    3;313,322,310;,
    3;322,313,323;,
    3;323,52,322;,
    3;50,322,52;,
    3;322,50,321;,
    3;54,321,50;,
    3;302,324,304;,
    3;325,304,324;,
    3;326,327,51;,
    3;327,328,51;,
    3;328,327,329;,
    3;329,330,328;,
    3;329,331,330;,
    3;326,57,58;,
    3;332,334,333;,
    3;335,336,180;,
    3;182,180,336;,
    3;336,337,182;,
    3;178,182,337;,
    3;337,335,178;,
    3;180,178,335;,
    3;326,337,336;,
    3;336,327,326;,
    3;327,336,335;,
    3;335,329,327;,
    3;332,339,338;,
    3;338,334,332;,
    3;110,108,340;,
    3;341,340,108;,
    3;340,341,342;,
    3;342,341,343;,
    3;342,343,344;,
    3;344,343,345;,
    3;340,342,344;,
    3;344,113,340;,
    3;110,340,113;,
    3;346,345,343;,
    3;341,347,343;,
    3;348,343,347;,
    3;349,351,350;,
    3;349,352,351;,
    3;353,355,354;,
    3;356,354,355;;

    MeshNormals {
     357;
     0.000000;-0.135323;0.990802;,
     0.000252;0.044890;0.998992;,
     0.000000;-0.135323;0.990802;,
     0.907932;0.419116;0.000864;,
     -0.000002;0.504730;0.863277;,
     0.932270;-0.319841;-0.169042;,
     0.377133;-0.007362;0.926130;,
     0.851184;-0.396068;-0.344405;,
     -0.000001;-0.253197;-0.967415;,
     -0.000002;0.033702;-0.999432;,
     0.487226;-0.086957;-0.868936;,
     0.255217;0.655920;-0.710375;,
     0.000000;0.143670;-0.989626;,
     0.000000;0.753807;-0.657096;,
     -0.237995;0.757970;0.607322;,
     0.183518;0.867414;0.462509;,
     -0.471447;0.275445;0.837776;,
     0.307867;0.373403;0.875093;,
     0.585726;0.316949;0.745968;,
     0.690804;0.634280;-0.347100;,
     0.993252;-0.011473;0.115403;,
     0.960907;-0.256728;-0.103672;,
     0.682920;0.553011;-0.477282;,
     -0.000001;0.836440;-0.548059;,
     0.000527;0.203140;-0.979150;,
     -0.682922;0.553014;-0.477277;,
     -0.841066;-0.501111;-0.203706;,
     -0.993252;-0.011471;0.115407;,
     -0.000000;-0.866717;0.498800;,
     -0.960906;-0.256728;-0.103682;,
     -0.690804;0.634282;-0.347097;,
     -0.000004;0.817912;-0.575344;,
     -0.001554;-0.902602;0.430474;,
     -0.731508;-0.115569;-0.671967;,
     0.846456;-0.495647;-0.194540;,
     0.736131;-0.104780;-0.668679;,
     -0.006790;0.452680;-0.891647;,
     0.611931;-0.235923;-0.754905;,
     0.008021;-0.569566;-0.821907;,
     0.011530;-0.821173;-0.570562;,
     -0.612807;-0.260179;-0.746173;,
     -0.830268;0.500362;0.245546;,
     0.696988;0.716997;0.011049;,
     0.991684;0.124911;0.030996;,
     0.000856;-0.905873;-0.423549;,
     -0.043741;0.312122;-0.949034;,
     -0.860469;0.469630;-0.197589;,
     0.000100;-0.870848;-0.491553;,
     0.000000;0.000000;-0.000000;,
     0.000000;0.000000;-0.000000;,
     0.464930;-0.750818;-0.469161;,
     -0.000228;-0.593383;-0.804920;,
     -0.903289;-0.427761;-0.033011;,
     0.779794;-0.047379;-0.624240;,
     0.979201;-0.186868;-0.079035;,
     0.996053;0.014622;0.087552;,
     0.778742;0.060330;0.624437;,
     -0.001000;-0.886882;0.461995;,
     -0.000283;-0.875025;0.484078;,
     -0.004779;-0.993576;-0.113070;,
     -0.717794;-0.556329;0.418653;,
     0.708272;-0.562098;0.427079;,
     0.574374;-0.729017;-0.372328;,
     -0.002366;-0.822327;-0.569010;,
     -0.579339;-0.721231;-0.379727;,
     -0.731686;0.624589;0.272989;,
     -0.985553;0.163340;-0.044788;,
     0.000002;0.553166;-0.833071;,
     -0.639739;0.248176;0.727422;,
     -0.738491;-0.202678;0.643081;,
     0.000001;0.516506;0.856284;,
     -0.885903;-0.463682;-0.013217;,
     -0.630383;0.075385;-0.772615;,
     0.695643;-0.338370;0.633708;,
     0.647356;-0.047194;-0.760725;,
     0.932876;0.155334;0.324983;,
     -0.438058;-0.426174;0.791505;,
     -0.658248;-0.604402;0.448785;,
     -0.490673;0.758649;-0.428594;,
     -0.735105;-0.112043;-0.668630;,
     -0.634470;-0.255379;-0.729540;,
     0.776575;-0.048993;-0.628117;,
     0.955213;0.018825;0.295319;,
     -0.329507;-0.045934;0.943035;,
     -0.323139;-0.056208;0.944681;,
     0.727885;0.030751;0.685009;,
     0.953578;-0.298076;-0.042889;,
     0.015909;-0.448722;0.893530;,
     -0.752112;-0.478838;0.452815;,
     -0.596989;-0.630289;-0.496326;,
     -0.692568;-0.496402;-0.523388;,
     0.373746;-0.389570;-0.841754;,
     0.856464;0.459012;0.236173;,
     -0.000207;0.813611;0.581410;,
     0.881866;0.338039;0.328698;,
     -0.000721;0.669928;0.742425;,
     -0.882214;0.337365;0.328457;,
     -0.856463;0.459014;0.236173;,
     0.000001;0.978478;0.206351;,
     -0.879152;0.472221;0.064020;,
     0.879153;0.472219;0.064020;,
     -0.917181;0.396762;0.036864;,
     0.000001;0.999661;0.026031;,
     0.000001;0.998481;0.055094;,
     0.917182;0.396760;0.036864;,
     0.618334;-0.692680;0.371293;,
     -0.001702;-0.920286;0.391243;,
     -0.619491;-0.691654;0.371276;,
     -0.959421;0.281974;0.001076;,
     -0.806673;0.545047;0.228478;,
     0.000135;0.994397;-0.105711;,
     -0.000001;0.939454;0.342674;,
     0.806671;0.544972;0.228662;,
     0.959505;0.281689;0.001496;,
     0.673846;-0.029346;0.738289;,
     -0.965681;0.160214;0.204430;,
     -0.477743;0.755431;-0.448426;,
     0.627609;0.691563;-0.357558;,
     -0.133625;0.564650;-0.814442;,
     0.771408;0.515247;-0.373429;,
     0.000000;0.894427;-0.447214;,
     0.000000;0.835986;-0.548750;,
     0.000119;-0.861131;0.508384;,
     0.000870;-0.901719;0.432322;,
     0.991472;0.126550;-0.031133;,
     -0.830087;0.498205;-0.250495;,
     -0.865409;0.458256;0.202656;,
     -0.044050;0.285234;0.957445;,
     0.704166;0.709928;-0.012366;,
     -0.003413;-0.771843;-0.635804;,
     -0.003283;-0.685504;0.728061;,
     0.931751;0.023837;-0.362315;,
     0.725067;-0.086805;0.683185;,
     0.193696;-0.333190;0.922749;,
     0.438132;-0.428280;0.790327;,
     -0.674546;-0.033000;0.737495;,
     -0.926944;0.224587;0.300558;,
     0.966811;0.152971;0.204638;,
     0.518027;0.750320;-0.410691;,
     0.480547;0.753789;-0.448193;,
     -0.629224;0.690042;-0.357658;,
     0.133749;0.562526;-0.815889;,
     -0.774569;0.510264;-0.373730;,
     -0.000041;0.551337;0.834283;,
     0.783888;-0.146292;0.603423;,
     -0.000514;-0.358813;0.933409;,
     -0.783892;-0.146291;0.603417;,
     -0.833418;0.393103;0.388438;,
     0.833417;0.393101;0.388443;,
     0.000001;0.946927;0.321450;,
     -0.796435;-0.150942;-0.585584;,
     0.000006;-0.159994;-0.987118;,
     -0.696805;0.165642;-0.697872;,
     0.000004;0.414209;-0.910182;,
     0.696813;0.165643;-0.697864;,
     0.000002;0.740062;-0.672538;,
     0.796443;-0.150941;-0.585573;,
     0.000009;-0.021616;0.999766;,
     -0.837397;0.269654;0.475449;,
     0.000004;0.221884;0.975073;,
     0.837396;0.269789;0.475376;,
     -0.183519;0.867414;0.462508;,
     -0.307870;0.373403;0.875092;,
     -0.376311;-0.009614;0.926444;,
     -0.585732;0.316947;0.745964;,
     0.237990;0.757971;0.607322;,
     0.471439;0.275450;0.837779;,
     -0.254227;0.655410;-0.711201;,
     0.000000;0.753807;-0.657096;,
     -0.485279;-0.087829;-0.869937;,
     0.000000;0.143670;-0.989626;,
     -0.907935;0.419110;0.000863;,
     -0.931172;-0.322447;-0.170137;,
     -0.848532;-0.399503;-0.346974;,
     -0.231225;0.886734;-0.400297;,
     -0.231225;0.886734;-0.400297;,
     -0.310912;0.844103;-0.436833;,
     -0.149340;0.920939;-0.359957;,
     0.368125;0.098215;0.924574;,
     -0.494402;0.117497;0.861256;,
     -0.900376;0.336031;0.276417;,
     -0.698785;0.604934;-0.381777;,
     0.421359;0.635961;-0.646537;,
     0.309561;0.731233;-0.607841;,
     0.937643;0.317019;0.142562;,
     0.421683;0.455405;-0.784085;,
     -0.002649;-0.999927;0.011753;,
     -0.005269;-0.999880;0.014570;,
     -0.005269;-0.999880;0.014570;,
     -0.007889;-0.999818;0.017387;,
     -0.000020;0.686972;-0.726684;,
     -0.000040;0.392119;-0.919914;,
     -0.000027;0.618884;-0.785483;,
     -0.000127;-0.573284;-0.819357;,
     -0.000030;-0.573286;-0.819355;,
     0.000515;-0.999997;0.002504;,
     -0.000459;-0.999994;0.003526;,
     0.000515;-0.999997;0.002504;,
     0.001490;-0.999998;0.001482;,
     -0.199611;0.868764;-0.453216;,
     -0.199611;0.868764;-0.453216;,
     -0.232013;0.852106;-0.469132;,
     -0.166893;0.884049;-0.436583;,
     0.658622;-0.610344;0.440111;,
     -0.710089;-0.340934;0.616067;,
     -0.570990;-0.036418;-0.820149;,
     -0.722053;-0.079954;0.687202;,
     -0.906975;0.000761;-0.421183;,
     -0.190739;-0.331330;0.924034;,
     0.000001;-0.708724;0.705485;,
     0.000000;-0.630894;0.775869;,
     0.000000;-0.367702;0.929944;,
     0.000000;0.000000;-0.000000;,
     0.000000;0.000000;-0.000000;,
     0.000000;0.000000;-0.000000;,
     0.000000;0.000000;-0.000000;,
     0.000000;0.000000;-0.000000;,
     0.000000;0.000000;-0.000000;,
     0.906738;-0.404468;-0.119296;,
     0.049906;0.763466;0.643916;,
     0.268788;0.807095;-0.525691;,
     -0.058846;0.554127;-0.830350;,
     -0.268785;0.807100;-0.525684;,
     0.058847;0.554130;-0.830347;,
     -0.049907;0.763466;0.643917;,
     -0.906740;-0.404463;-0.119296;,
     0.000000;-0.918768;-0.394797;,
     0.866497;-0.358187;-0.347685;,
     -0.000000;-0.884332;-0.466858;,
     -0.866498;-0.358185;-0.347685;,
     -0.965596;0.209218;-0.154441;,
     -0.749508;0.583372;-0.312913;,
     -0.668523;0.742485;0.042349;,
     -0.000003;0.929112;-0.369798;,
     -0.000001;0.999978;0.006686;,
     0.668522;0.742485;0.042350;,
     0.965597;0.209213;-0.154440;,
     0.749510;0.583370;-0.312913;,
     0.003138;0.592580;0.805506;,
     0.006397;0.179234;0.983786;,
     0.007268;0.018929;0.999794;,
     0.008357;-0.270437;0.962701;,
     0.008354;-0.270441;0.962700;,
     0.985553;0.163336;-0.044790;,
     0.731689;0.624589;0.272984;,
     0.639747;0.248175;0.727416;,
     0.738497;-0.202686;0.643071;,
     0.885903;-0.463682;-0.013215;,
     0.630393;0.075387;-0.772607;,
     -0.558522;-0.829385;-0.013171;,
     -0.499336;0.866281;0.014829;,
     -0.997972;0.063630;0.001568;,
     0.560414;-0.828108;-0.013135;,
     0.997963;0.063784;0.001534;,
     0.498555;0.866731;0.014835;,
     0.000000;1.000000;-0.000000;,
     0.000000;1.000000;-0.000000;,
     0.000000;1.000000;-0.000000;,
     0.000000;-1.000000;-0.000000;,
     0.000000;-1.000000;-0.000000;,
     0.000000;-1.000000;-0.000000;,
     0.658116;-0.382323;0.648624;,
     0.469542;0.362641;-0.804998;,
     0.150499;-0.698348;-0.699757;,
     -0.130258;0.212787;0.968377;,
     -0.987592;-0.154017;0.030670;,
     -0.953640;0.281054;-0.107607;,
     0.636820;-0.266870;-0.723354;,
     0.746323;-0.153402;-0.647665;,
     -0.750547;0.052674;-0.658715;,
     0.298262;-0.033550;0.953894;,
     0.323524;-0.069548;0.943661;,
     -0.964203;0.107993;0.242178;,
     -0.030284;-0.407979;0.912489;,
     -0.943645;-0.322456;-0.074536;,
     -0.749157;-0.021711;0.662036;,
     0.761285;-0.409346;0.502873;,
     0.647327;-0.580775;-0.493627;,
     0.739479;-0.420079;-0.526027;,
     -0.368932;-0.398836;-0.839535;,
     -0.151400;-0.699023;-0.698888;,
     -0.470569;0.361479;-0.804921;,
     -0.657770;-0.383688;0.648168;,
     0.129472;0.213000;0.968436;,
     0.987886;-0.152102;0.030771;,
     0.952988;0.283257;-0.107612;,
     -0.763490;0.381714;-0.520940;,
     -0.810517;0.138332;-0.569145;,
     -0.810517;0.138332;-0.569145;,
     -0.805858;-0.113870;-0.581056;,
     0.805859;-0.113870;-0.581054;,
     0.810519;0.138328;-0.569144;,
     0.810519;0.138328;-0.569144;,
     0.763494;0.381705;-0.520940;,
     0.468521;0.624695;0.624695;,
     0.468521;0.624695;0.624695;,
     0.894427;0.447214;-0.000000;,
     0.447214;0.894427;-0.000000;,
     -0.447214;0.894427;-0.000000;,
     -0.662266;0.529813;0.529813;,
     -0.662266;0.529813;0.529813;,
     -0.894427;0.447214;-0.000000;,
     0.034807;0.282142;0.958741;,
     0.035375;-0.567591;0.822550;,
     0.000061;0.647326;0.762213;,
     0.311301;0.843544;-0.437635;,
     0.230818;0.886713;-0.400579;,
     0.230818;0.886713;-0.400579;,
     0.148092;0.921268;-0.359631;,
     -0.368731;0.094354;0.924735;,
     0.900757;0.331942;0.280092;,
     0.493101;0.109172;0.863095;,
     0.700703;0.603949;-0.379816;,
     -0.424321;0.633914;-0.646610;,
     -0.312879;0.731404;-0.605933;,
     -0.938714;0.312651;0.145139;,
     -0.425160;0.455784;-0.781985;,
     0.005280;-0.999880;0.014564;,
     0.007856;-0.999819;0.017326;,
     0.005280;-0.999880;0.014564;,
     0.002703;-0.999927;0.011802;,
     0.847272;-0.228690;0.479407;,
     0.030331;-0.756338;-0.653477;,
     -0.960068;-0.270315;0.072102;,
     -0.017642;0.934830;0.354656;,
     -0.043713;0.945114;0.323803;,
     0.903058;-0.428260;-0.032852;,
     -0.465070;-0.750594;-0.469382;,
     -0.779616;-0.046481;-0.624530;,
     -0.979335;-0.185997;-0.079420;,
     -0.996058;0.015925;0.087264;,
     -0.778694;0.061364;0.624395;,
     -0.000050;0.647329;0.762210;,
     -0.035357;-0.567568;0.822567;,
     -0.034788;0.282159;0.958737;,
     -0.847340;-0.228594;0.479333;,
     -0.030375;-0.756744;-0.653005;,
     0.959885;-0.270843;0.072555;,
     0.017644;0.934830;0.354656;,
     0.043713;0.945112;0.323809;,
     0.000253;0.968725;-0.248136;,
     -0.639860;0.730325;0.239177;,
     0.000185;0.923497;0.383605;,
     0.000062;0.332415;0.943133;,
     0.640181;0.729957;0.239437;,
     0.234351;0.020112;0.971944;,
     -0.212302;-0.448917;0.867987;,
     -0.234365;0.020280;0.971937;,
     0.212291;-0.449028;0.867932;,
     -0.000511;-0.999997;0.002504;,
     -0.001477;-0.999998;0.001483;,
     -0.000511;-0.999997;0.002504;,
     0.000455;-0.999994;0.003526;,
     0.167103;0.883737;-0.437134;,
     0.198563;0.869005;-0.453214;,
     0.198563;0.869005;-0.453214;,
     0.229732;0.853000;-0.468630;;
     394;
     3;0,2,1;,
     3;3,1,4;,
     3;1,3,5;,
     3;6,1,5;,
     3;6,5,7;,
     3;3,9,8;,
     3;5,3,8;,
     3;10,5,8;,
     3;10,7,5;,
     3;11,7,10;,
     3;8,12,10;,
     3;13,10,12;,
     3;11,10,13;,
     3;14,11,15;,
     3;11,13,15;,
     3;14,15,6;,
     3;16,14,6;,
     3;17,15,18;,
     3;17,6,15;,
     3;19,21,20;,
     3;22,19,20;,
     3;22,23,19;,
     3;23,22,24;,
     3;24,25,23;,
     3;24,26,25;,
     3;27,25,26;,
     3;27,26,28;,
     3;29,27,28;,
     3;27,29,30;,
     3;27,30,25;,
     3;30,23,25;,
     3;31,23,30;,
     3;19,23,31;,
     3;26,32,28;,
     3;33,32,26;,
     3;34,32,35;,
     3;28,32,34;,
     3;28,34,20;,
     3;28,20,21;,
     3;34,22,20;,
     3;22,34,24;,
     3;35,24,34;,
     3;24,35,36;,
     3;37,36,35;,
     3;36,37,38;,
     3;38,37,39;,
     3;39,38,37;,
     3;40,38,39;,
     3;26,24,33;,
     3;36,33,24;,
     3;33,36,40;,
     3;38,40,36;,
     3;39,40,38;,
     3;41,43,42;,
     3;43,44,42;,
     3;42,44,45;,
     3;44,46,45;,
     3;41,42,46;,
     3;46,42,45;,
     3;44,41,46;,
     3;47,41,44;,
     3;43,47,44;,
     3;44,48,47;,
     3;47,48,44;,
     3;48,44,49;,
     3;49,44,48;,
     3;50,52,51;,
     3;53,50,51;,
     3;50,53,54;,
     3;55,54,53;,
     3;56,54,55;,
     3;57,52,58;,
     3;32,60,59;,
     3;59,61,32;,
     3;61,59,62;,
     3;63,62,59;,
     3;64,59,60;,
     3;64,63,59;,
     3;59,63,62;,
     3;59,64,63;,
     3;65,67,66;,
     3;66,68,65;,
     3;68,66,69;,
     3;70,65,68;,
     3;71,69,66;,
     3;66,72,71;,
     3;72,66,67;,
     3;73,75,74;,
     3;75,73,76;,
     3;77,76,73;,
     3;76,77,78;,
     3;78,74,75;,
     3;74,78,77;,
     3;79,81,80;,
     3;82,80,81;,
     3;81,83,82;,
     3;84,82,83;,
     3;80,83,79;,
     3;83,80,84;,
     3;85,87,86;,
     3;87,85,88;,
     3;88,89,87;,
     3;88,90,89;,
     3;90,91,89;,
     3;86,91,85;,
     3;86,89,91;,
     3;92,94,93;,
     3;94,95,93;,
     3;96,93,95;,
     3;97,93,96;,
     3;98,97,99;,
     3;97,98,93;,
     3;98,100,92;,
     3;92,93,98;,
     3;101,103,102;,
     3;102,99,101;,
     3;99,102,98;,
     3;100,98,102;,
     3;102,104,100;,
     3;104,102,103;,
     3;57,106,105;,
     3;57,107,106;,
     3;107,57,108;,
     3;109,107,108;,
     3;108,110,109;,
     3;111,109,110;,
     3;111,110,112;,
     3;113,112,110;,
     3;112,113,105;,
     3;105,113,57;,
     3;76,114,75;,
     3;114,76,115;,
     3;78,115,76;,
     3;115,78,116;,
     3;116,78,117;,
     3;118,116,117;,
     3;118,117,119;,
     3;117,75,114;,
     3;114,119,117;,
     3;75,117,78;,
     3;115,116,118;,
     3;120,122,121;,
     3;121,122,120;,
     3;123,121,122;,
     3;122,121,123;,
     3;124,123,122;,
     3;122,123,125;,
     3;123,126,125;,
     3;123,127,126;,
     3;124,128,123;,
     3;128,127,123;,
     3;126,127,128;,
     3;125,126,128;,
     3;125,128,124;,
     3;129,77,130;,
     3;77,129,74;,
     3;131,74,129;,
     3;73,74,131;,
     3;132,73,131;,
     3;73,132,133;,
     3;130,77,133;,
     3;133,77,73;,
     3;134,136,135;,
     3;135,137,134;,
     3;138,134,137;,
     3;137,139,138;,
     3;139,140,138;,
     3;141,140,139;,
     3;141,142,140;,
     3;140,135,136;,
     3;135,140,142;,
     3;136,138,140;,
     3;137,141,139;,
     3;143,145,144;,
     3;143,146,145;,
     3;146,143,147;,
     3;144,148,143;,
     3;143,148,149;,
     3;143,149,147;,
     3;150,152,151;,
     3;153,151,152;,
     3;154,151,153;,
     3;153,155,154;,
     3;152,155,153;,
     3;151,154,156;,
     3;157,159,158;,
     3;157,160,159;,
     3;161,163,162;,
     3;164,161,162;,
     3;163,161,165;,
     3;163,165,166;,
     3;161,167,165;,
     3;161,168,167;,
     3;168,169,167;,
     3;170,169,168;,
     3;169,170,8;,
     3;8,9,171;,
     3;8,171,172;,
     3;8,172,169;,
     3;172,173,169;,
     3;169,173,167;,
     3;4,1,171;,
     3;172,171,1;,
     3;172,1,163;,
     3;173,172,163;,
     3;174,176,175;,
     3;175,177,174;,
     3;178,180,179;,
     3;181,179,180;,
     3;180,182,181;,
     3;183,181,182;,
     3;184,183,182;,
     3;184,185,183;,
     3;179,184,178;,
     3;182,178,184;,
     3;185,181,183;,
     3;186,188,187;,
     3;188,189,187;,
     3;190,192,191;,
     3;190,193,192;,
     3;194,193,190;,
     3;195,197,196;,
     3;195,198,197;,
     3;199,201,200;,
     3;200,202,199;,
     3;203,204,134;,
     3;136,134,204;,
     3;204,205,136;,
     3;138,136,205;,
     3;205,203,138;,
     3;134,138,203;,
     3;206,207,204;,
     3;204,207,205;,
     3;207,129,205;,
     3;203,205,129;,
     3;129,130,203;,
     3;130,208,203;,
     3;204,208,206;,
     3;208,204,203;,
     3;194,209,193;,
     3;193,209,210;,
     3;209,211,210;,
     3;212,214,213;,
     3;212,213,214;,
     3;215,217,216;,
     3;217,215,216;,
     3;218,220,219;,
     3;219,220,221;,
     3;220,218,221;,
     3;222,224,223;,
     3;222,225,224;,
     3;225,222,223;,
     3;226,228,227;,
     3;226,229,228;,
     3;226,230,229;,
     3;231,229,230;,
     3;232,231,230;,
     3;231,232,233;,
     3;233,232,234;,
     3;233,234,235;,
     3;234,111,235;,
     3;235,111,112;,
     3;109,232,230;,
     3;232,109,111;,
     3;234,232,111;,
     3;112,236,235;,
     3;237,233,235;,
     3;235,236,237;,
     3;237,236,227;,
     3;226,227,236;,
     3;238,240,239;,
     3;240,241,239;,
     3;240,242,241;,
     3;67,244,243;,
     3;245,243,244;,
     3;243,245,246;,
     3;244,70,245;,
     3;246,247,243;,
     3;248,243,247;,
     3;243,248,67;,
     3;249,251,250;,
     3;251,249,252;,
     3;253,252,249;,
     3;252,253,254;,
     3;250,254,253;,
     3;254,250,251;,
     3;255,257,256;,
     3;256,257,255;,
     3;258,260,259;,
     3;259,260,258;,
     3;261,263,262;,
     3;262,264,261;,
     3;265,261,264;,
     3;264,266,265;,
     3;263,265,262;,
     3;266,262,265;,
     3;261,265,263;,
     3;267,269,268;,
     3;268,270,267;,
     3;271,267,270;,
     3;270,272,271;,
     3;272,270,269;,
     3;269,267,272;,
     3;273,275,274;,
     3;275,273,276;,
     3;277,276,273;,
     3;278,276,277;,
     3;279,278,277;,
     3;279,274,275;,
     3;277,274,279;,
     3;280,282,281;,
     3;283,281,282;,
     3;282,284,283;,
     3;285,283,284;,
     3;284,280,281;,
     3;281,285,284;,
     3;284,282,280;,
     3;286,288,287;,
     3;288,289,287;,
     3;290,292,291;,
     3;292,293,291;,
     3;294,296,295;,
     3;295,297,294;,
     3;295,294,297;,
     3;294,295,296;,
     3;298,300,299;,
     3;301,299,300;,
     3;299,300,298;,
     3;300,299,301;,
     3;158,143,145;,
     3;160,145,143;,
     3;159,160,143;,
     3;159,143,158;,
     3;302,304,303;,
     3;305,307,306;,
     3;308,306,307;,
     3;309,311,310;,
     3;312,310,311;,
     3;310,312,313;,
     3;314,313,312;,
     3;315,313,314;,
     3;315,314,316;,
     3;311,309,315;,
     3;313,315,309;,
     3;316,314,312;,
     3;317,319,318;,
     3;320,319,317;,
     3;321,310,322;,
     3;310,321,309;,
     3;323,309,321;,
     3;309,323,313;,
     3;313,322,310;,
     3;322,313,323;,
     3;323,52,322;,
     3;50,322,52;,
     3;322,50,321;,
     3;54,321,50;,
     3;302,324,304;,
     3;325,304,324;,
     3;326,327,51;,
     3;327,328,51;,
     3;328,327,329;,
     3;329,330,328;,
     3;329,331,330;,
     3;326,57,58;,
     3;332,334,333;,
     3;335,336,180;,
     3;182,180,336;,
     3;336,337,182;,
     3;178,182,337;,
     3;337,335,178;,
     3;180,178,335;,
     3;326,337,336;,
     3;336,327,326;,
     3;327,336,335;,
     3;335,329,327;,
     3;332,339,338;,
     3;338,334,332;,
     3;110,108,340;,
     3;341,340,108;,
     3;340,341,342;,
     3;342,341,343;,
     3;342,343,344;,
     3;344,343,345;,
     3;340,342,344;,
     3;344,113,340;,
     3;110,340,113;,
     3;346,345,343;,
     3;341,347,343;,
     3;348,343,347;,
     3;349,351,350;,
     3;349,352,351;,
     3;353,355,354;,
     3;356,354,355;;
    }

    MeshTextureCoords {
     357;
     0.556039;0.637675;,
     0.650000;0.754792;,
     0.557598;0.636410;,
     0.552264;0.782497;,
     0.650000;0.889272;,
     0.565110;0.717755;,
     0.556039;0.637675;,
     0.550997;0.620659;,
     0.651990;0.644323;,
     0.653197;0.958830;,
     0.606287;0.576291;,
     0.564656;0.528564;,
     0.642040;0.583538;,
     0.648010;0.509153;,
     0.554067;0.510908;,
     0.650000;0.462140;,
     0.551383;0.573172;,
     0.650000;0.597643;,
     0.648401;0.523641;,
     0.169406;0.490454;,
     0.240091;0.679142;,
     0.261457;0.658799;,
     0.097080;0.502918;,
     0.002921;0.380686;,
     0.014325;0.498980;,
     0.097080;0.502918;,
     0.198720;0.717613;,
     0.240091;0.679142;,
     0.308570;0.884855;,
     0.261457;0.658799;,
     0.169406;0.490454;,
     0.090722;0.397111;,
     0.101024;0.922664;,
     0.127226;0.733872;,
     0.198720;0.717613;,
     0.127226;0.733872;,
     0.002540;0.604405;,
     0.054237;0.766402;,
     0.004237;0.683532;,
     0.003673;0.820224;,
     0.054237;0.766402;,
     0.716234;0.905767;,
     0.676176;0.689315;,
     0.716234;0.905767;,
     0.696696;0.734583;,
     0.686189;0.687527;,
     0.676408;0.689511;,
     0.739183;0.896708;,
     0.776479;0.878052;,
     0.747936;0.739286;,
     0.441046;0.282182;,
     0.515572;0.222606;,
     0.307170;0.190397;,
     0.454241;0.117132;,
     0.307170;0.190397;,
     0.350402;0.108428;,
     0.258653;0.120723;,
     0.513473;0.222606;,
     0.241833;0.072715;,
     0.006838;0.991209;,
     0.133296;0.735389;,
     0.133296;0.735389;,
     0.072447;0.767919;,
     0.005191;0.820224;,
     0.072447;0.767919;,
     0.571012;0.769101;,
     0.537794;0.940050;,
     0.642449;0.782945;,
     0.488477;0.936977;,
     0.438297;0.990445;,
     0.534522;0.770719;,
     0.544571;0.992577;,
     0.619505;0.982819;,
     0.704232;0.294048;,
     0.796974;0.277907;,
     0.777301;0.368033;,
     0.764876;0.366754;,
     0.689019;0.288220;,
     0.884086;0.355893;,
     0.516385;0.686094;,
     0.456951;0.799589;,
     0.451524;0.645781;,
     0.401165;0.776240;,
     0.510857;0.684910;,
     0.448905;0.798405;,
     0.490162;0.626884;,
     0.449424;0.646506;,
     0.510878;0.698342;,
     0.566528;0.602325;,
     0.516406;0.699527;,
     0.561485;0.585309;,
     0.465015;0.607114;,
     0.146804;0.129752;,
     0.147104;0.073154;,
     0.231595;0.098548;,
     0.241616;0.071945;,
     0.231595;0.098548;,
     0.146804;0.129752;,
     0.061223;0.074057;,
     0.062917;0.130879;,
     0.062917;0.130879;,
     0.012250;0.130910;,
     0.010207;0.073629;,
     0.001387;0.096523;,
     0.012250;0.130910;,
     0.649099;0.206066;,
     0.658837;0.249808;,
     0.649099;0.206066;,
     0.459389;0.131625;,
     0.641681;0.134901;,
     0.510104;0.052256;,
     0.655529;0.052556;,
     0.641681;0.134901;,
     0.459389;0.131625;,
     0.793035;0.426778;,
     0.798540;0.426666;,
     0.934479;0.372130;,
     0.902555;0.371886;,
     0.982708;0.427149;,
     0.923375;0.426964;,
     0.777574;0.878756;,
     0.747936;0.739286;,
     0.739183;0.896708;,
     0.696696;0.734583;,
     0.713962;0.903470;,
     0.713962;0.903470;,
     0.676387;0.689283;,
     0.686189;0.687527;,
     0.676387;0.689283;,
     0.840828;0.248608;,
     0.658424;0.249808;,
     0.747540;0.137642;,
     0.639122;0.134901;,
     0.647037;0.206066;,
     0.764876;0.366754;,
     0.793035;0.426778;,
     0.777301;0.368033;,
     0.798540;0.426666;,
     0.884086;0.355893;,
     0.934479;0.372130;,
     0.902555;0.371886;,
     0.982708;0.427149;,
     0.923375;0.426964;,
     0.859773;0.714456;,
     0.991843;0.735079;,
     0.919813;0.806174;,
     0.991843;0.735079;,
     0.992880;0.690057;,
     0.992880;0.690057;,
     0.973798;0.644751;,
     0.610292;0.489650;,
     0.648401;0.522210;,
     0.601435;0.407522;,
     0.650000;0.418685;,
     0.601435;0.407522;,
     0.650000;0.343853;,
     0.610292;0.489650;,
     0.842191;0.989705;,
     0.893909;0.867792;,
     0.826670;0.840005;,
     0.893909;0.867792;,
     0.650000;0.462140;,
     0.650000;0.597643;,
     0.556039;0.637675;,
     0.648401;0.523641;,
     0.554067;0.510908;,
     0.551383;0.573172;,
     0.564656;0.528564;,
     0.648010;0.509153;,
     0.606287;0.576291;,
     0.642040;0.583538;,
     0.552264;0.782497;,
     0.565110;0.717755;,
     0.550997;0.620659;,
     0.175101;0.145041;,
     0.079332;0.236146;,
     0.086252;0.145041;,
     0.181815;0.236146;,
     0.196093;0.356333;,
     0.233162;0.424451;,
     0.220448;0.355426;,
     0.372267;0.425537;,
     0.307190;0.356050;,
     0.362759;0.373306;,
     0.229304;0.424651;,
     0.423408;0.426765;,
     0.247954;0.554771;,
     0.305285;0.558713;,
     0.213295;0.462109;,
     0.314629;0.452190;,
     0.080252;0.265988;,
     0.131187;0.309254;,
     0.182041;0.268537;,
     0.183085;0.238982;,
     0.080019;0.238954;,
     0.305285;0.558713;,
     0.314629;0.452190;,
     0.213060;0.460817;,
     0.244894;0.551520;,
     0.079332;0.236146;,
     0.175101;0.145041;,
     0.181815;0.236146;,
     0.086252;0.145041;,
     0.689019;0.288220;,
     0.704232;0.294048;,
     0.796974;0.277907;,
     0.639122;0.134901;,
     0.747540;0.137642;,
     0.647037;0.206066;,
     0.080252;0.265988;,
     0.182041;0.268537;,
     0.131187;0.309596;,
     0.005871;0.042650;,
     0.109514;0.045180;,
     0.017678;0.006914;,
     0.109514;0.045180;,
     0.005871;0.042650;,
     0.017678;0.006914;,
     0.152095;0.074197;,
     0.190655;0.015638;,
     0.121606;0.030079;,
     0.192294;0.014360;,
     0.121606;0.030079;,
     0.192294;0.014360;,
     0.190655;0.015638;,
     0.152095;0.074197;,
     0.841269;0.248608;,
     0.863167;0.129961;,
     0.905646;0.197333;,
     0.863167;0.129961;,
     0.750919;0.137642;,
     0.893619;0.064901;,
     0.765404;0.060210;,
     0.908344;0.037810;,
     0.803261;0.004434;,
     0.765404;0.060210;,
     0.750919;0.137642;,
     0.893619;0.064901;,
     0.115407;0.350929;,
     0.133524;0.395445;,
     0.132061;0.311888;,
     0.180014;0.395917;,
     0.177509;0.307362;,
     0.537794;0.940050;,
     0.571012;0.769101;,
     0.488477;0.936977;,
     0.438297;0.990445;,
     0.544571;0.992577;,
     0.619505;0.982819;,
     0.737966;0.971460;,
     0.722484;0.971594;,
     0.721892;0.998363;,
     0.738588;0.998681;,
     0.722492;0.971696;,
     0.721900;0.998461;,
     0.221893;0.935414;,
     0.219026;0.967675;,
     0.252446;0.953628;,
     0.221893;0.935414;,
     0.219026;0.967675;,
     0.252446;0.953628;,
     0.468568;0.790377;,
     0.490950;0.698922;,
     0.469076;0.790179;,
     0.490652;0.698827;,
     0.423949;0.775708;,
     0.457143;0.645939;,
     0.459366;0.794758;,
     0.526046;0.688510;,
     0.449109;0.643366;,
     0.520519;0.687326;,
     0.451320;0.793574;,
     0.408411;0.773825;,
     0.510878;0.698342;,
     0.449424;0.646506;,
     0.490162;0.626884;,
     0.566528;0.602325;,
     0.516406;0.699527;,
     0.561485;0.585309;,
     0.465015;0.607114;,
     0.469076;0.790179;,
     0.490950;0.698922;,
     0.468568;0.790377;,
     0.490652;0.698827;,
     0.423949;0.775708;,
     0.457143;0.645939;,
     0.476163;0.298262;,
     0.519397;0.387543;,
     0.565072;0.363768;,
     0.601194;0.434107;,
     0.601194;0.434107;,
     0.519397;0.387543;,
     0.565072;0.363768;,
     0.476163;0.298262;,
     0.589770;0.472395;,
     0.532166;0.439073;,
     0.604031;0.417021;,
     0.490926;0.477514;,
     0.490926;0.477514;,
     0.589770;0.472395;,
     0.532166;0.439073;,
     0.604031;0.417021;,
     0.340628;0.163990;,
     0.289337;0.098822;,
     0.257498;0.157064;,
     0.086252;0.145041;,
     0.079332;0.236146;,
     0.175101;0.145041;,
     0.181815;0.236146;,
     0.196093;0.356333;,
     0.220448;0.355426;,
     0.233162;0.424451;,
     0.372267;0.425537;,
     0.307190;0.356050;,
     0.362759;0.373306;,
     0.229304;0.424651;,
     0.423408;0.426765;,
     0.225137;0.463341;,
     0.306894;0.460235;,
     0.304442;0.546561;,
     0.244546;0.560169;,
     0.267376;0.240069;,
     0.342510;0.291702;,
     0.267376;0.240069;,
     0.348507;0.242443;,
     0.282602;0.239723;,
     0.307170;0.190397;,
     0.441046;0.282182;,
     0.454241;0.117132;,
     0.307170;0.190397;,
     0.350402;0.108428;,
     0.258653;0.120723;,
     0.257498;0.157064;,
     0.289337;0.098822;,
     0.340628;0.163990;,
     0.267376;0.240069;,
     0.342510;0.291702;,
     0.267376;0.240069;,
     0.348507;0.242443;,
     0.282602;0.239723;,
     0.427725;0.015875;,
     0.341058;0.098766;,
     0.326440;0.022846;,
     0.239200;0.074360;,
     0.341058;0.098766;,
     0.270424;0.120126;,
     0.261276;0.151749;,
     0.270424;0.120126;,
     0.261276;0.151749;,
     0.304442;0.546561;,
     0.244546;0.560169;,
     0.225137;0.463341;,
     0.307262;0.459133;,
     0.086252;0.145041;,
     0.079332;0.236146;,
     0.175101;0.145041;,
     0.181815;0.236146;;
    }

    VertexDuplicationIndices {
     357;
     357;
     0,
     1,
     2,
     3,
     4,
     5,
     6,
     7,
     8,
     9,
     10,
     11,
     12,
     13,
     14,
     15,
     16,
     17,
     18,
     19,
     20,
     21,
     22,
     23,
     24,
     25,
     26,
     27,
     28,
     29,
     30,
     31,
     32,
     33,
     34,
     35,
     36,
     37,
     38,
     39,
     40,
     41,
     42,
     43,
     44,
     45,
     46,
     47,
     48,
     49,
     50,
     51,
     52,
     53,
     54,
     55,
     56,
     57,
     58,
     59,
     60,
     61,
     62,
     63,
     64,
     65,
     66,
     67,
     68,
     69,
     70,
     71,
     72,
     73,
     74,
     75,
     76,
     77,
     78,
     79,
     80,
     81,
     82,
     83,
     84,
     85,
     86,
     87,
     88,
     89,
     90,
     91,
     92,
     93,
     94,
     95,
     96,
     97,
     98,
     99,
     100,
     101,
     102,
     103,
     104,
     105,
     106,
     107,
     108,
     109,
     110,
     111,
     112,
     113,
     114,
     115,
     116,
     117,
     118,
     119,
     120,
     121,
     122,
     123,
     124,
     125,
     126,
     127,
     128,
     129,
     130,
     131,
     132,
     133,
     134,
     135,
     136,
     137,
     138,
     139,
     140,
     141,
     142,
     143,
     144,
     145,
     146,
     147,
     148,
     149,
     150,
     151,
     152,
     153,
     154,
     155,
     156,
     157,
     158,
     159,
     160,
     161,
     162,
     163,
     164,
     165,
     166,
     167,
     168,
     169,
     170,
     171,
     172,
     173,
     174,
     175,
     176,
     177,
     178,
     179,
     180,
     181,
     182,
     183,
     184,
     185,
     186,
     187,
     188,
     189,
     190,
     191,
     192,
     193,
     194,
     195,
     196,
     197,
     198,
     199,
     200,
     201,
     202,
     203,
     204,
     205,
     206,
     207,
     208,
     209,
     210,
     211,
     212,
     213,
     214,
     215,
     216,
     217,
     218,
     219,
     220,
     221,
     222,
     223,
     224,
     225,
     226,
     227,
     228,
     229,
     230,
     231,
     232,
     233,
     234,
     235,
     236,
     237,
     238,
     239,
     240,
     241,
     242,
     243,
     244,
     245,
     246,
     247,
     248,
     249,
     250,
     251,
     252,
     253,
     254,
     255,
     256,
     257,
     258,
     259,
     260,
     261,
     262,
     263,
     264,
     265,
     266,
     267,
     268,
     269,
     270,
     271,
     272,
     273,
     274,
     275,
     276,
     277,
     278,
     279,
     280,
     281,
     282,
     283,
     284,
     285,
     286,
     287,
     288,
     289,
     290,
     291,
     292,
     293,
     294,
     295,
     296,
     297,
     298,
     299,
     300,
     301,
     302,
     303,
     304,
     305,
     306,
     307,
     308,
     309,
     310,
     311,
     312,
     313,
     314,
     315,
     316,
     317,
     318,
     319,
     320,
     321,
     322,
     323,
     324,
     325,
     326,
     327,
     328,
     329,
     330,
     331,
     332,
     333,
     334,
     335,
     336,
     337,
     338,
     339,
     340,
     341,
     342,
     343,
     344,
     345,
     346,
     347,
     348,
     349,
     350,
     351,
     352,
     353,
     354,
     355,
     356;
    }

    MeshMaterialList {
     1;
     394;
     0,
     0,
     0,
     0,
     0,
     0,
     0,
     0,
     0,
     0,
     0,
     0,
     0,
     0,
     0,
     0,
     0,
     0,
     0,
     0,
     0,
     0,
     0,
     0,
     0,
     0,
     0,
     0,
     0,
     0,
     0,
     0,
     0,
     0,
     0,
     0,
     0,
     0,
     0,
     0,
     0,
     0,
     0,
     0,
     0,
     0,
     0,
     0,
     0,
     0,
     0,
     0,
     0,
     0,
     0,
     0,
     0,
     0,
     0,
     0,
     0,
     0,
     0,
     0,
     0,
     0,
     0,
     0,
     0,
     0,
     0,
     0,
     0,
     0,
     0,
     0,
     0,
     0,
     0,
     0,
     0,
     0,
     0,
     0,
     0,
     0,
     0,
     0,
     0,
     0,
     0,
     0,
     0,
     0,
     0,
     0,
     0,
     0,
     0,
     0,
     0,
     0,
     0,
     0,
     0,
     0,
     0,
     0,
     0,
     0,
     0,
     0,
     0,
     0,
     0,
     0,
     0,
     0,
     0,
     0,
     0,
     0,
     0,
     0,
     0,
     0,
     0,
     0,
     0,
     0,
     0,
     0,
     0,
     0,
     0,
     0,
     0,
     0,
     0,
     0,
     0,
     0,
     0,
     0,
     0,
     0,
     0,
     0,
     0,
     0,
     0,
     0,
     0,
     0,
     0,
     0,
     0,
     0,
     0,
     0,
     0,
     0,
     0,
     0,
     0,
     0,
     0,
     0,
     0,
     0,
     0,
     0,
     0,
     0,
     0,
     0,
     0,
     0,
     0,
     0,
     0,
     0,
     0,
     0,
     0,
     0,
     0,
     0,
     0,
     0,
     0,
     0,
     0,
     0,
     0,
     0,
     0,
     0,
     0,
     0,
     0,
     0,
     0,
     0,
     0,
     0,
     0,
     0,
     0,
     0,
     0,
     0,
     0,
     0,
     0,
     0,
     0,
     0,
     0,
     0,
     0,
     0,
     0,
     0,
     0,
     0,
     0,
     0,
     0,
     0,
     0,
     0,
     0,
     0,
     0,
     0,
     0,
     0,
     0,
     0,
     0,
     0,
     0,
     0,
     0,
     0,
     0,
     0,
     0,
     0,
     0,
     0,
     0,
     0,
     0,
     0,
     0,
     0,
     0,
     0,
     0,
     0,
     0,
     0,
     0,
     0,
     0,
     0,
     0,
     0,
     0,
     0,
     0,
     0,
     0,
     0,
     0,
     0,
     0,
     0,
     0,
     0,
     0,
     0,
     0,
     0,
     0,
     0,
     0,
     0,
     0,
     0,
     0,
     0,
     0,
     0,
     0,
     0,
     0,
     0,
     0,
     0,
     0,
     0,
     0,
     0,
     0,
     0,
     0,
     0,
     0,
     0,
     0,
     0,
     0,
     0,
     0,
     0,
     0,
     0,
     0,
     0,
     0,
     0,
     0,
     0,
     0,
     0,
     0,
     0,
     0,
     0,
     0,
     0,
     0,
     0,
     0,
     0,
     0,
     0,
     0,
     0,
     0,
     0,
     0,
     0,
     0,
     0,
     0,
     0,
     0,
     0,
     0,
     0,
     0,
     0,
     0,
     0,
     0,
     0,
     0,
     0,
     0,
     0,
     0,
     0,
     0,
     0,
     0,
     0,
     0,
     0,
     0,
     0,
     0,
     0,
     0,
     0,
     0,
     0,
     0,
     0,
     0,
     0,
     0,
     0,
     0,
     0,
     0,
     0,
     0,
     0,
     0,
     0;

     Material Material02 {
      0.800000;0.800000;0.800000;1.000000;;
      0.000000;
      0.000000;0.000000;0.000000;;
      0.000000;0.000000;0.000000;;
      TextureFilename {
       "PriestessOfTheMoon.bmp";
      }
     }
    }

    XSkinMeshHeader {
     1;
     3;
     0;
    }

   }
 }
  Frame Mesh03 {

   FrameTransformMatrix {
    1.000000, 0.000000, 0.000000, 0.000000,
    0.000000, 1.000000, 0.000000, 0.000000,
    0.000000, 0.000000, 1.000000, 0.000000,
    0.000000, 0.000000, 0.000000, 1.000000;;
   }

   Mesh {
    56;
    -14.434300;94.459602;-27.018200;,
    -1.099570;111.197998;-27.169001;,
    -10.037800;106.496002;-23.675100;,
    -14.886600;91.141403;-35.306801;,
    -8.210200;89.267502;-44.993000;,
    -0.954980;93.809700;-49.019699;,
    -1.014870;94.090302;-40.703800;,
    -1.059640;101.184998;-30.099800;,
    12.204500;94.334702;-26.822201;,
    7.872460;106.412003;-23.543301;,
    6.197260;89.199799;-44.887001;,
    12.747700;91.011803;-35.103401;,
    22.666500;69.783302;-2.140720;,
    11.470100;94.236198;-21.413000;,
    13.851400;88.043900;-11.670300;,
    30.544500;78.447304;-18.708900;,
    17.543100;84.883202;-33.448299;,
    26.920700;65.286598;-33.718700;,
    35.923901;52.845600;-14.338600;,
    -24.584600;69.793198;-2.434070;,
    -37.693401;52.740501;-14.631900;,
    -28.799200;65.259598;-34.012100;,
    -32.537800;78.388199;-19.002100;,
    -15.929100;88.130203;-11.963700;,
    -13.602100;94.343102;-21.706301;,
    -19.593201;84.937302;-33.741600;,
    -9.870690;130.257996;7.257480;,
    -14.556500;119.190002;13.533300;,
    -39.746201;115.668999;7.938160;,
    -12.787700;123.964996;-2.198420;,
    -21.873800;115.550003;-2.002620;,
    -13.011300;116.991997;1.441150;,
    -20.978001;115.375000;12.466600;,
    -12.543100;115.112000;13.741100;,
    36.388000;115.668999;7.938160;,
    11.251600;119.190002;13.533300;,
    6.565790;130.257996;7.257480;,
    9.482900;123.964996;-2.198420;,
    19.958700;115.550003;-2.002620;,
    9.688640;116.991997;1.441150;,
    19.062799;115.375000;12.466600;,
    9.238280;115.112000;13.741100;,
    -1.464830;99.638603;11.062000;,
    -13.461700;83.933502;16.932100;,
    -11.170700;97.776398;6.324690;,
    -3.835380;94.308701;21.574100;,
    -14.345800;89.880203;39.741402;,
    -21.094200;78.101303;34.725399;,
    -19.627300;79.500702;52.907101;,
    7.922370;97.776398;6.324690;,
    10.213300;83.933502;16.932100;,
    -1.783490;99.638603;11.062000;,
    0.587030;94.308701;21.574100;,
    11.097300;89.880203;39.741402;,
    17.845800;78.101303;34.725399;,
    16.378901;79.500702;52.907101;;
    66;
    3;0,2,1;,
    3;3,5,4;,
    3;5,3,6;,
    3;3,0,6;,
    3;7,6,0;,
    3;1,7,0;,
    3;8,7,1;,
    3;1,9,8;,
    3;10,5,11;,
    3;6,11,5;,
    3;6,8,11;,
    3;8,6,7;,
    3;12,14,13;,
    3;14,15,13;,
    3;13,15,16;,
    3;17,16,15;,
    3;15,14,12;,
    3;13,16,17;,
    3;12,13,17;,
    3;17,12,18;,
    3;15,12,18;,
    3;15,18,17;,
    3;19,21,20;,
    3;19,22,20;,
    3;23,22,19;,
    3;22,23,24;,
    3;24,19,21;,
    3;23,19,24;,
    3;25,24,21;,
    3;25,21,22;,
    3;20,22,21;,
    3;22,24,25;,
    3;26,28,27;,
    3;29,28,26;,
    3;28,29,30;,
    3;31,30,29;,
    3;30,32,28;,
    3;27,28,32;,
    3;33,27,32;,
    3;34,36,35;,
    3;34,37,36;,
    3;37,34,38;,
    3;38,39,37;,
    3;40,38,34;,
    3;34,35,40;,
    3;35,41,40;,
    3;42,44,43;,
    3;42,43,44;,
    3;43,42,45;,
    3;43,45,42;,
    3;45,46,43;,
    3;45,43,46;,
    3;47,46,43;,
    3;47,43,46;,
    3;46,48,47;,
    3;46,47,48;,
    3;49,51,50;,
    3;50,51,49;,
    3;51,50,52;,
    3;52,50,51;,
    3;53,52,50;,
    3;50,52,53;,
    3;50,54,53;,
    3;53,54,50;,
    3;55,53,54;,
    3;54,53,55;;

    MeshNormals {
     56;
     -0.438471;0.605729;-0.663955;,
     0.007302;0.368170;-0.929730;,
     -0.507912;0.397747;-0.764083;,
     -0.417617;0.848691;-0.324531;,
     -0.640858;0.539516;-0.546099;,
     0.007000;0.934700;-0.355369;,
     0.006761;0.949531;-0.313600;,
     0.009189;0.581250;-0.813673;,
     0.452455;0.602094;-0.657851;,
     0.516695;0.391986;-0.761166;,
     0.653862;0.533431;-0.536578;,
     0.430292;0.844712;-0.318294;,
     0.347151;0.443327;0.826406;,
     -0.989522;0.089360;-0.113408;,
     0.218729;0.701842;0.677920;,
     0.833576;0.548668;0.064143;,
     0.418943;0.554099;-0.719348;,
     0.561233;0.190818;-0.805361;,
     0.927404;0.366931;0.072688;,
     -0.351022;0.440275;0.826402;,
     -0.930573;0.358817;0.072688;,
     -0.562881;0.185916;-0.805358;,
     -0.838336;0.541366;0.064147;,
     -0.224856;0.699903;0.677921;,
     0.988704;0.097987;-0.113418;,
     -0.423769;0.550419;-0.719346;,
     -0.421578;0.874501;0.239833;,
     -0.219466;0.225235;0.949265;,
     -0.776250;0.544331;0.318025;,
     -0.203680;0.371808;-0.905689;,
     -0.030972;-0.523650;-0.851370;,
     0.386692;-0.436434;-0.812401;,
     -0.180889;-0.415137;0.891594;,
     -0.150084;-0.023735;0.988388;,
     0.729932;0.608545;0.311243;,
     0.215523;0.267374;0.939181;,
     0.422188;0.874209;0.239823;,
     0.226461;0.403176;-0.886659;,
     0.060873;-0.502999;-0.862141;,
     -0.340323;-0.442966;-0.829434;,
     0.182583;-0.369824;0.910985;,
     0.128984;-0.013153;0.991560;,
     0.000000;0.000000;-0.000000;,
     0.000000;0.000000;-0.000000;,
     0.000000;0.000000;-0.000000;,
     0.000000;0.000000;-0.000000;,
     0.000000;0.000000;-0.000000;,
     0.000000;0.000000;-0.000000;,
     0.000000;0.000000;-0.000000;,
     0.000000;0.000000;-0.000000;,
     0.000000;0.000000;1.000000;,
     0.000000;0.000000;1.000000;,
     0.000000;0.000000;1.000000;,
     0.000000;0.000000;-0.000000;,
     0.000000;0.000000;-0.000000;,
     0.000000;0.000000;-0.000000;;
     66;
     3;0,2,1;,
     3;3,5,4;,
     3;5,3,6;,
     3;3,0,6;,
     3;7,6,0;,
     3;1,7,0;,
     3;8,7,1;,
     3;1,9,8;,
     3;10,5,11;,
     3;6,11,5;,
     3;6,8,11;,
     3;8,6,7;,
     3;12,14,13;,
     3;14,15,13;,
     3;13,15,16;,
     3;17,16,15;,
     3;15,14,12;,
     3;13,16,17;,
     3;12,13,17;,
     3;17,12,18;,
     3;15,12,18;,
     3;15,18,17;,
     3;19,21,20;,
     3;19,22,20;,
     3;23,22,19;,
     3;22,23,24;,
     3;24,19,21;,
     3;23,19,24;,
     3;25,24,21;,
     3;25,21,22;,
     3;20,22,21;,
     3;22,24,25;,
     3;26,28,27;,
     3;29,28,26;,
     3;28,29,30;,
     3;31,30,29;,
     3;30,32,28;,
     3;27,28,32;,
     3;33,27,32;,
     3;34,36,35;,
     3;34,37,36;,
     3;37,34,38;,
     3;38,39,37;,
     3;40,38,34;,
     3;34,35,40;,
     3;35,41,40;,
     3;42,44,43;,
     3;42,43,44;,
     3;43,42,45;,
     3;43,45,42;,
     3;45,46,43;,
     3;45,43,46;,
     3;47,46,43;,
     3;47,43,46;,
     3;46,48,47;,
     3;46,47,48;,
     3;49,51,50;,
     3;50,51,49;,
     3;51,50,52;,
     3;52,50,51;,
     3;53,52,50;,
     3;50,52,53;,
     3;50,54,53;,
     3;53,54,50;,
     3;55,53,54;,
     3;54,53,55;;
    }

    MeshTextureCoords {
     56;
     0.001641;0.187537;,
     0.059599;0.134662;,
     0.013422;0.139080;,
     0.000935;0.286550;,
     0.015166;0.334998;,
     0.059598;0.339257;,
     0.059598;0.286001;,
     0.059598;0.184474;,
     0.001641;0.187537;,
     0.013422;0.139080;,
     0.015166;0.334998;,
     0.000935;0.286550;,
     0.000784;0.282139;,
     0.060677;0.134251;,
     0.001451;0.189803;,
     0.060245;0.236043;,
     0.001451;0.189803;,
     0.000784;0.282139;,
     0.060195;0.340257;,
     0.000784;0.282139;,
     0.060195;0.340257;,
     0.000784;0.282139;,
     0.060245;0.236043;,
     0.001451;0.189803;,
     0.060677;0.134251;,
     0.001451;0.189803;,
     0.507963;0.490983;,
     0.510644;0.600761;,
     0.361244;0.605456;,
     0.523151;0.523966;,
     0.465015;0.607114;,
     0.561485;0.585309;,
     0.490162;0.626884;,
     0.566528;0.602325;,
     0.361244;0.605456;,
     0.510644;0.600761;,
     0.507963;0.490983;,
     0.523151;0.523966;,
     0.465015;0.607114;,
     0.561485;0.585309;,
     0.490162;0.626884;,
     0.566528;0.602325;,
     0.996605;0.423251;,
     0.910511;0.585074;,
     0.991107;0.535359;,
     0.892881;0.467009;,
     0.762388;0.478256;,
     0.810638;0.621971;,
     0.664367;0.622977;,
     0.991107;0.535359;,
     0.910511;0.585074;,
     0.996605;0.423251;,
     0.892881;0.467009;,
     0.762388;0.478256;,
     0.810638;0.621971;,
     0.664367;0.622977;;
    }

    VertexDuplicationIndices {
     56;
     56;
     0,
     1,
     2,
     3,
     4,
     5,
     6,
     7,
     8,
     9,
     10,
     11,
     12,
     13,
     14,
     15,
     16,
     17,
     18,
     19,
     20,
     21,
     22,
     23,
     24,
     25,
     26,
     27,
     28,
     29,
     30,
     31,
     32,
     33,
     34,
     35,
     36,
     37,
     38,
     39,
     40,
     41,
     42,
     43,
     44,
     45,
     46,
     47,
     48,
     49,
     50,
     51,
     52,
     53,
     54,
     55;
    }

    MeshMaterialList {
     1;
     66;
     0,
     0,
     0,
     0,
     0,
     0,
     0,
     0,
     0,
     0,
     0,
     0,
     0,
     0,
     0,
     0,
     0,
     0,
     0,
     0,
     0,
     0,
     0,
     0,
     0,
     0,
     0,
     0,
     0,
     0,
     0,
     0,
     0,
     0,
     0,
     0,
     0,
     0,
     0,
     0,
     0,
     0,
     0,
     0,
     0,
     0,
     0,
     0,
     0,
     0,
     0,
     0,
     0,
     0,
     0,
     0,
     0,
     0,
     0,
     0,
     0,
     0,
     0,
     0,
     0,
     0;

     Material Material03 {
      0.800000;0.800000;0.800000;1.000000;;
      0.000000;
      0.000000;0.000000;0.000000;;
      0.000000;0.000000;0.000000;;
      TextureFilename {
       "PriestessOfTheMoon.bmp";
      }
     }
    }

    XSkinMeshHeader {
     1;
     3;
     0;
    }

   }
 }
 }
}

AnimationSet AnimationSet0
{
 Animation
 {
  AnimationKey
  {
   4;
   2;
   0; 16; 1.000000, 0.000000, 0.000000, 0.000000, 0.000000, 1.000000, 0.000000, 0.000000, 0.000000, 0.000000, 1.000000, 0.000000, 0.000000, 0.000000, 0.000000, 1.000000;;,
   -1; 16; 1.000000, 0.000000, 0.000000, 0.000000, 0.000000, 1.000000, 0.000000, 0.000000, 0.000000, 0.000000, 1.000000, 0.000000, 0.000000, 0.000000, 0.000000, 1.000000;;;
  }
  { Scene_Root }
 }
}

